<?xml version="1.0" encoding="UTF-8" standalone="no"?>
<svg
   xmlns:dc="http://purl.org/dc/elements/1.1/"
   xmlns:cc="http://creativecommons.org/ns#"
   xmlns:rdf="http://www.w3.org/1999/02/22-rdf-syntax-ns#"
   xmlns:svg="http://www.w3.org/2000/svg"
   xmlns="http://www.w3.org/2000/svg"
   xmlns:sodipodi="http://sodipodi.sourceforge.net/DTD/sodipodi-0.dtd"
   xmlns:inkscape="http://www.inkscape.org/namespaces/inkscape"
   width="74px"
   height="74px"
   viewBox="0 0 74 74"
   version="1.1"
   id="svg26"
   sodipodi:docname="logo.svg"
   inkscape:version="1.0.1 (1.0.1+r73)">
  <metadata
     id="metadata30">
    <rdf:RDF>
      <cc:Work
         rdf:about="">
        <dc:format>image/svg+xml</dc:format>
        <dc:type
           rdf:resource="http://purl.org/dc/dcmitype/StillImage" />
      </cc:Work>
    </rdf:RDF>
  </metadata>
  <sodipodi:namedview
     pagecolor="#ffffff"
     bordercolor="#666666"
     borderopacity="1"
     objecttolerance="10"
     gridtolerance="10"
     guidetolerance="10"
     inkscape:pageopacity="0"
     inkscape:pageshadow="2"
     inkscape:window-width="1366"
     inkscape:window-height="704"
     id="namedview28"
     showgrid="false"
     inkscape:zoom="1.8851351"
     inkscape:cx="35.185121"
     inkscape:cy="-22.684375"
     inkscape:window-x="0"
     inkscape:window-y="27"
     inkscape:window-maximized="1"
     inkscape:current-layer="svg26" />
  <!-- Generator: Sketch 48.2 (47327) - http://www.bohemiancoding.com/sketch -->
  <title
     id="title2">logo</title>
  <desc
     id="desc4">Created with Sketch.</desc>
  <defs
     id="defs19">
    <filter
       x="-0.31207946"
       y="-0.31207946"
       width="1.6241589"
       height="1.6241589"
       filterUnits="objectBoundingBox"
       id="filter-1">
      <feOffset
         dx="0"
         dy="2"
         in="SourceAlpha"
         result="shadowOffsetOuter1"
         id="feOffset6" />
      <feGaussianBlur
         stdDeviation="7.281854"
         in="shadowOffsetOuter1"
         result="shadowBlurOuter1"
         id="feGaussianBlur8" />
      <feColorMatrix
         values="0 0 0 0 0   0 0 0 0 0   0 0 0 0 0  0 0 0 0.142974411 0"
         type="matrix"
         in="shadowBlurOuter1"
         result="shadowMatrixOuter1"
         id="feColorMatrix10" />
      <feMerge
         id="feMerge16">
        <feMergeNode
           in="shadowMatrixOuter1"
           id="feMergeNode12" />
        <feMergeNode
           in="SourceGraphic"
           id="feMergeNode14" />
      </feMerge>
    </filter>
    <filter
       x="-0.08624788"
       y="-0.08624788"
       width="1.1724958"
       height="1.1724958"
       filterUnits="objectBoundingBox"
       id="filter940">
      <feOffset
         dx="0"
         dy="2"
         in="SourceAlpha"
         result="shadowOffsetOuter1"
         id="feOffset928" />
      <feGaussianBlur
         stdDeviation="2.0124505"
         in="shadowOffsetOuter1"
         result="shadowBlurOuter1"
         id="feGaussianBlur930" />
      <feColorMatrix
         values="0 0 0 0 0   0 0 0 0 0   0 0 0 0 0  0 0 0 0.142974411 0"
         type="matrix"
         in="shadowBlurOuter1"
         result="shadowMatrixOuter1"
         id="feColorMatrix932" />
      <feMerge
         id="feMerge938">
        <feMergeNode
           in="shadowMatrixOuter1"
           id="feMergeNode934" />
        <feMergeNode
           in="SourceGraphic"
           id="feMergeNode936" />
      </feMerge>
    </filter>
  </defs>
  <g
     id="g1317"
     transform="translate(0,2)">
    <circle
       id="circle926"
       fill="#7ccdb9"
       cx="37"
       cy="34.983997"
       r="28"
       style="fill:#f32015;fill-opacity:1;fill-rule:evenodd;stroke:none;stroke-width:1;filter:url(#filter940)" />
    <g
       id="g964">
      <circle
         id="Oval-2"
         fill="#7ccdb9"
         cx="37"
         cy="34.983997"
         r="28"
         style="fill:#f32015;fill-opacity:1;fill-rule:evenodd;stroke:none;stroke-width:1;filter:url(#filter-1)" />
      <g
         id="g957">
        <path
           style="fill:none;stroke:#ffffff;stroke-width:1.849;stroke-linecap:round;stroke-linejoin:miter;stroke-miterlimit:4;stroke-dasharray:none;stroke-opacity:1"
           d="m 16.722666,35 c 7.075568,-2.099376 11.541639,-5.008292 15.140113,-8.186369 l 2e-6,0.0352"
           id="path866"
           sodipodi:nodetypes="ccc" />
        <path
           style="fill:none;stroke:#ffffff;stroke-width:1.849;stroke-linecap:round;stroke-linejoin:miter;stroke-miterlimit:4;stroke-dasharray:none;stroke-opacity:1"
           d="m 16.722666,35 c 7.075568,2.099375 11.541639,5.008291 15.140113,8.186368 l 2e-6,-0.0352"
           id="path868"
           sodipodi:nodetypes="ccc" />
        <path
           style="fill:none;stroke:#ffffff;stroke-width:1.97436;stroke-linecap:butt;stroke-linejoin:miter;stroke-miterlimit:4;stroke-dasharray:none;stroke-opacity:1"
           d="M 17.563463,35 H 57.43239 Z"
           id="path870" />
      </g>
    </g>
  </g>
</svg>
