<?xml version="1.0" encoding="UTF-8" standalone="no"?>
<svg
   xmlns:dc="http://purl.org/dc/elements/1.1/"
   xmlns:cc="http://creativecommons.org/ns#"
   xmlns:rdf="http://www.w3.org/1999/02/22-rdf-syntax-ns#"
   xmlns:svg="http://www.w3.org/2000/svg"
   xmlns="http://www.w3.org/2000/svg"
   xmlns:sodipodi="http://sodipodi.sourceforge.net/DTD/sodipodi-0.dtd"
   xmlns:inkscape="http://www.inkscape.org/namespaces/inkscape"
   width="900"
   height="900"
   viewBox="0 0 238.12499 238.12501"
   version="1.1"
   id="svg8"
   inkscape:version="1.0.1 (1.0.1+r73)"
   sodipodi:docname="spin.svg">
  <defs
     id="defs2">
    <rect
       x="-379.88916"
       y="-156.62518"
       width="549.69165"
       height="59.611118"
       id="rect841" />
  </defs>
  <sodipodi:namedview
     id="base"
     pagecolor="#ffffff"
     bordercolor="#666666"
     borderopacity="1.0"
     inkscape:pageopacity="0.0"
     inkscape:pageshadow="2"
     inkscape:zoom="0.35"
     inkscape:cx="357.32237"
     inkscape:cy="446.86586"
     inkscape:document-units="mm"
     inkscape:current-layer="layer1"
     inkscape:document-rotation="0"
     showgrid="false"
     units="px"
     inkscape:window-width="1366"
     inkscape:window-height="704"
     inkscape:window-x="0"
     inkscape:window-y="27"
     inkscape:window-maximized="1" />
  <metadata
     id="metadata5">
    <rdf:RDF>
      <cc:Work
         rdf:about="">
        <dc:format>image/svg+xml</dc:format>
        <dc:type
           rdf:resource="http://purl.org/dc/dcmitype/StillImage" />
        <dc:title></dc:title>
      </cc:Work>
    </rdf:RDF>
  </metadata>
  <g
     inkscape:label="Layer 1"
     inkscape:groupmode="layer"
     id="layer1">
    <g
       aria-label="FLÁVIO VIVÓRIO CARNEIRO"
       transform="matrix(-0.60788756,0,0,-0.60788756,185.54121,208.95327)"
       id="text839"
       style="font-style:normal;font-weight:normal;font-size:45.8611px;line-height:1.25;font-family:sans-serif;letter-spacing:1.19062px;white-space:pre;fill:#f32015;fill-opacity:1;stroke:none">
      <path
         d="m 295.74188,197.90096 -7.71505,-1.12324 4.57887,-31.45017 -4.90133,-0.71359 -3.74635,25.73196 -6.94354,-1.01092 3.74635,-25.73196 -9.57574,-1.39414 1.46022,-10.02956 29.13565,4.24189 z"
         style="font-style:normal;font-variant:normal;font-weight:normal;font-stretch:normal;font-size:45.8611px;font-family:Syne;-inkscape-font-specification:'Syne, @wght=775';font-variant-ligatures:normal;font-variant-caps:normal;font-variant-numeric:normal;font-variant-east-asian:normal;font-variation-settings:'wght' 775;fill:#f32015;fill-opacity:1"
         id="path864" />
      <path
         d="m 286.78039,221.3122 -19.74062,-8.88123 -10.236,22.7519 -7.10997,-3.19875 14.39437,-31.99486 26.85059,12.07998 z"
         style="font-style:normal;font-variant:normal;font-weight:normal;font-stretch:normal;font-size:45.8611px;font-family:Syne;-inkscape-font-specification:'Syne, @wght=775';font-variant-ligatures:normal;font-variant-caps:normal;font-variant-numeric:normal;font-variant-east-asian:normal;font-variation-settings:'wght' 775;fill:#f32015;fill-opacity:1"
         id="path866" />
      <path
         d="m 245.73468,245.99948 4.96071,4.07613 -18.05146,21.96886 -4.96071,-4.07614 z m 2.22914,-10.51465 11.16052,32.79459 -7.10413,8.6458 -34.45272,-4.44767 7.07501,-8.61038 30.45453,4.54579 -3.72675,4.5355 -10.45235,-28.88869 z m 13.19287,34.58325 -4.1e-4,10.98074 -8.23962,10.02772 2.0676,-13.49653 z"
         style="font-style:normal;font-variant:normal;font-weight:normal;font-stretch:normal;font-size:45.8611px;font-family:Syne;-inkscape-font-specification:'Syne, @wght=775';font-variant-ligatures:normal;font-variant-caps:normal;font-variant-numeric:normal;font-variant-east-asian:normal;font-variation-settings:'wght' 775;fill:#f32015;fill-opacity:1"
         id="path868" />
      <path
         d="m 205.30808,279.75502 30.26046,15.11049 -9.43131,6.35674 -27.34777,-15.13795 3.34659,-2.25562 3.80754,31.00418 -9.31722,6.27984 -2.80318,-33.61681 z"
         style="font-style:normal;font-variant:normal;font-weight:normal;font-stretch:normal;font-size:45.8611px;font-family:Syne;-inkscape-font-specification:'Syne, @wght=775';font-variant-ligatures:normal;font-variant-caps:normal;font-variant-numeric:normal;font-variant-east-asian:normal;font-variation-settings:'wght' 775;fill:#f32015;fill-opacity:1"
         id="path870" />
      <path
         d="m 184.63921,325.23229 -9.41503,3.75253 -10.90102,-27.35047 9.41503,-3.75253 z"
         style="font-style:normal;font-variant:normal;font-weight:normal;font-stretch:normal;font-size:45.8611px;font-family:Syne;-inkscape-font-specification:'Syne, @wght=775';font-variant-ligatures:normal;font-variant-caps:normal;font-variant-numeric:normal;font-variant-east-asian:normal;font-variation-settings:'wght' 775;fill:#f32015;fill-opacity:1"
         id="path872" />
      <path
         d="m 131.88664,308.79508 q 8.85336,-1.2624 14.69027,-0.28802 5.83691,0.97439 8.95576,4.00405 3.07992,3.08153 3.79205,8.07573 0.71212,4.99421 -1.39024,8.76836 -2.1413,3.82602 -7.47325,6.39298 -5.33195,2.56696 -14.18531,3.82937 -8.89877,1.26887 -14.69027,0.28801 -5.83691,-0.97438 -8.91684,-4.05592 -3.11884,-3.02965 -3.83097,-8.02386 -0.71212,-4.9942 1.42917,-8.82023 2.10237,-3.77415 7.43432,-6.34111 5.28654,-2.56048 14.18531,-3.82936 z m 1.10703,7.76372 q -4.44938,0.63444 -7.57581,1.77511 -3.11995,1.18608 -4.65756,3.07302 -1.57654,1.93883 -1.16222,4.84455 0.41433,2.90572 2.46346,4.28123 2.01021,1.42739 5.33085,1.64877 3.32712,0.26679 7.7765,-0.36765 4.40398,-0.62797 7.66014,-1.83346 3.21722,-1.15362 4.88457,-3.1054 1.62842,-1.89989 1.21409,-4.80561 -0.41433,-2.90572 -2.51534,-4.32016 -2.13994,-1.36257 -5.55785,-1.6164 -3.45685,-0.20197 -7.86083,0.426 z"
         style="font-style:normal;font-variant:normal;font-weight:normal;font-stretch:normal;font-size:45.8611px;font-family:Syne;-inkscape-font-specification:'Syne, @wght=775';font-variant-ligatures:normal;font-variant-caps:normal;font-variant-numeric:normal;font-variant-east-asian:normal;font-variation-settings:'wght' 775;fill:#f32015;fill-opacity:1"
         id="path874" />
      <path
         d="m 70.80601,306.89478 7.926835,32.88141 -10.936737,-3.12177 -6.030121,-30.67077 3.880777,1.10773 -21.26762,22.87891 -10.804438,-3.08401 23.913181,-23.79302 z"
         style="font-style:normal;font-variant:normal;font-weight:normal;font-stretch:normal;font-size:45.8611px;font-family:Syne;-inkscape-font-specification:'Syne, @wght=775';font-variant-ligatures:normal;font-variant-caps:normal;font-variant-numeric:normal;font-variant-east-asian:normal;font-variation-settings:'wght' 775;fill:#f32015;fill-opacity:1"
         id="path876" />
      <path
         d="m 22.690659,320.33747 -8.930054,-4.79359 13.925275,-25.94161 8.930053,4.7936 z"
         style="font-style:normal;font-variant:normal;font-weight:normal;font-stretch:normal;font-size:45.8611px;font-family:Syne;-inkscape-font-specification:'Syne, @wght=775';font-variant-ligatures:normal;font-variant-caps:normal;font-variant-numeric:normal;font-variant-east-asian:normal;font-variation-settings:'wght' 775;fill:#f32015;fill-opacity:1"
         id="path878" />
      <path
         d="m 8.8342839,276.88123 -6.1239146,33.26439 -8.7233604,-7.298 6.95822258,-30.47361 3.09538592,2.58961 -28.7314484,12.25806 -8.617836,-7.20971 31.5201491,-12.01781 z"
         style="font-style:normal;font-variant:normal;font-weight:normal;font-stretch:normal;font-size:45.8611px;font-family:Syne;-inkscape-font-specification:'Syne, @wght=775';font-variant-ligatures:normal;font-variant-caps:normal;font-variant-numeric:normal;font-variant-east-asian:normal;font-variation-settings:'wght' 775;fill:#f32015;fill-opacity:1"
         id="path880" />
      <path
         d="m -28.694325,233.63951 q 4.699937,7.6083 6.142851,13.34737 1.442915,5.73908 -0.08543,9.80973 -1.59146,4.05573 -5.883325,6.70698 -4.291864,2.65125 -8.591963,2.23495 -4.363218,-0.43121 -8.849455,-4.29031 -4.486237,-3.8591 -9.186174,-11.4674 -4.724039,-7.64733 -6.142851,-13.34738 -1.442914,-5.73907 0.148546,-9.79481 1.528342,-4.07065 5.820206,-6.7219 4.291865,-2.65125 8.655083,-2.22003 4.300099,0.4163 8.786336,4.27539 4.462134,3.82008 9.186173,11.46741 z m -6.671899,4.12148 q -2.362019,-3.82366 -4.658532,-6.23233 -2.335531,-2.38457 -4.680128,-3.03855 -2.407717,-0.66889 -4.904802,0.87365 -2.497085,1.54254 -2.937605,3.9709 -0.50364,2.41344 0.622365,5.54518 1.086988,3.15584 3.449007,6.9795 2.337917,3.78465 4.745754,6.28627 2.344718,2.4867 4.800639,3.23363 2.392802,0.73201 4.889887,-0.81053 2.497085,-1.54254 2.95252,-4.03402 0.392317,-2.50639 -0.742876,-5.74027 -1.198311,-3.24879 -3.536229,-7.03343 z m -18.801155,18.08288 -10.389491,-3.5546 -6.820934,-11.04179 12.10075,6.3248 z"
         style="font-style:normal;font-variant:normal;font-weight:normal;font-stretch:normal;font-size:45.8611px;font-family:Syne;-inkscape-font-specification:'Syne, @wght=775';font-variant-ligatures:normal;font-variant-caps:normal;font-variant-numeric:normal;font-variant-east-asian:normal;font-variation-settings:'wght' 775;fill:#f32015;fill-opacity:1"
         id="path882" />
      <path
         d="m -45.207024,205.12569 -28.78634,6.18277 -6.6354,-30.89375 q -0.837851,-3.90096 -0.551115,-7.15222 0.232268,-3.28647 1.964091,-5.4878 1.722192,-2.24618 5.264436,-3.00698 2.376443,-0.51042 4.12877,0.004 1.752328,0.51486 2.976535,1.84676 1.214577,1.28707 2.077073,3.11882 0.817657,1.84138 1.359967,3.92953 l -0.02433,2.72583 q -0.985622,-4.80735 -1.105435,-7.54913 -0.174282,-2.77699 0.71555,-4.09387 0.835363,-1.3521 2.942774,-1.80473 l 6.322234,-1.3579 2.118705,9.86448 -5.246109,1.12677 q -1.389995,0.29854 -2.036684,1.00032 -0.646689,0.70178 -0.549762,2.46343 0.04246,1.72644 0.764743,5.08933 l 3.428451,15.96252 8.743514,-1.87795 z m -17.642469,-6.57717 -4.507064,-20.98444 q -0.356328,-1.65902 -1.195938,-2.51064 -0.894079,-0.88683 -2.328912,-0.57866 -1.389995,0.29855 -1.706556,1.4454 -0.37103,1.11164 -0.0147,2.77067 l 4.507064,20.98444 z"
         style="font-style:normal;font-variant:normal;font-weight:normal;font-stretch:normal;font-size:45.8611px;font-family:Syne;-inkscape-font-specification:'Syne, @wght=775';font-variant-ligatures:normal;font-variant-caps:normal;font-variant-numeric:normal;font-variant-east-asian:normal;font-variation-settings:'wght' 775;fill:#f32015;fill-opacity:1"
         id="path884" />
      <path
         d="m -83.060529,151.78802 0.104343,-10.13477 29.441266,0.30312 -0.104344,10.13476 z"
         style="font-style:normal;font-variant:normal;font-weight:normal;font-stretch:normal;font-size:45.8611px;font-family:Syne;-inkscape-font-specification:'Syne, @wght=775';font-variant-ligatures:normal;font-variant-caps:normal;font-variant-numeric:normal;font-variant-east-asian:normal;font-variation-settings:'wght' 775;fill:#f32015;fill-opacity:1"
         id="path886" />
      <path
         d="m -47.883912,109.21973 q -2.182045,8.67263 -5.292937,13.70664 -3.110892,5.03402 -7.095535,6.77432 -4.017928,1.68463 -8.910177,0.45374 -4.892249,-1.2309 -7.590044,-4.60522 -2.731081,-3.42999 -3.089239,-9.33682 -0.358157,-5.90684 1.823888,-14.57946 2.193236,-8.717099 5.292937,-13.706639 3.110892,-5.034015 7.12882,-6.718651 3.984643,-1.740301 8.876892,-0.509404 4.892249,1.230897 7.62333,4.660885 2.697796,3.374323 3.055953,9.281156 0.369348,5.862353 -1.823888,14.579453 z m -7.605223,-1.91348 q 1.096617,-4.35855 1.223981,-7.684126 0.08289,-3.336764 -1.081802,-5.474128 -1.197976,-2.193029 -4.044375,-2.909187 -2.8464,-0.716159 -4.895099,0.660002 -2.081983,1.320495 -3.543596,4.31037 -1.506089,2.978685 -2.602706,7.337239 -1.085428,4.31407 -1.201886,7.78426 -0.149744,3.41452 1.025852,5.6965 1.14231,2.22631 3.98871,2.94247 2.846399,0.71616 4.950763,-0.69328 2.071079,-1.46511 3.599547,-4.53275 1.495183,-3.1233 2.580611,-7.43737 z"
         style="font-style:normal;font-variant:normal;font-weight:normal;font-stretch:normal;font-size:45.8611px;font-family:Syne;-inkscape-font-specification:'Syne, @wght=775';font-variant-ligatures:normal;font-variant-caps:normal;font-variant-numeric:normal;font-variant-east-asian:normal;font-variation-settings:'wght' 775;fill:#f32015;fill-opacity:1"
         id="path888" />
      <path
         d="m -10.080483,18.632058 q 3.0685819,2.841911 3.5444729,6.770021 0.5047719,3.892486 -1.6543968,8.813408 -2.1591691,4.920923 -7.0689201,10.977158 -3.783397,4.666864 -7.421515,7.916505 -3.638117,3.24964 -7.157931,4.824035 -3.526558,1.509889 -6.961788,1.086508 -3.470855,-0.452262 -6.855221,-3.195946 -3.384367,-2.743685 -4.544751,-6.04594 -1.196008,-3.331135 -0.483819,-7.122615 0.705446,-3.855985 3.096691,-8.116457 2.391246,-4.260472 6.174643,-8.927335 4.909752,-6.056235 9.38454,-9.0999 4.468044,-3.108171 8.452011,-3.361663 4.012848,-0.289118 7.463625,2.154175 l -6.584844,8.12248 q -1.593442,-0.583333 -3.443879,-0.194239 -1.821555,0.353469 -4.053157,2.086632 -2.267228,1.704281 -5.126436,5.231147 -3.350184,4.13249 -4.903883,7.35984 -1.524819,3.191724 -1.239665,5.60732 0.314034,2.379971 2.451529,4.112825 1.994995,1.61733 4.352829,1.403426 2.35109,-0.27841 5.158405,-2.430422 2.800572,-2.216518 6.150755,-6.349008 2.859209,-3.526867 4.100058,-6.004188 1.234105,-2.541827 1.274414,-4.339341 0.03357,-1.86202 -0.68861,-3.155945 z"
         style="font-style:normal;font-variant:normal;font-weight:normal;font-stretch:normal;font-size:45.8611px;font-family:Syne;-inkscape-font-specification:'Syne, @wght=775';font-variant-ligatures:normal;font-variant-caps:normal;font-variant-numeric:normal;font-variant-east-asian:normal;font-variation-settings:'wght' 775;fill:#f32015;fill-opacity:1"
         id="path890" />
      <path
         d="M 6.5488449,15.447138 3.0840445,10.041709 27.022376,-5.3024076 30.487177,0.10302216 Z M 1.1907668,24.764745 0.66904654,-9.8729442 10.089938,-15.911596 41.499828,-1.072767 32.117547,4.9411366 4.5418448,-8.7600875 9.4839519,-11.927905 10.534438,18.77559 Z"
         style="font-style:normal;font-variant:normal;font-weight:normal;font-stretch:normal;font-size:45.8611px;font-family:Syne;-inkscape-font-specification:'Syne, @wght=775';font-variant-ligatures:normal;font-variant-caps:normal;font-variant-numeric:normal;font-variant-east-asian:normal;font-variation-settings:'wght' 775;fill:#f32015;fill-opacity:1"
         id="path892" />
      <path
         d="m 46.50136,-3.0351009 -7.318603,-28.5187311 30.606551,-7.854389 q 3.864688,-0.991773 7.124757,-0.834096 3.293092,0.101855 5.561323,1.745087 2.312654,1.631832 3.21323,5.141146 0.604183,2.35435 0.15916,4.125704 -0.445023,1.771354 -1.727367,3.047377 -1.237922,1.264624 -3.034058,2.199028 -1.807536,0.889982 -3.872556,1.514611 l -2.724655,0.0837 q 4.764522,-1.175346 7.499399,-1.40371 2.767899,-0.284187 4.119012,0.552763 1.384135,0.781129 1.919921,2.868949 l 1.607357,6.263459 -9.772774,2.507933 -1.333764,-5.197339 q -0.353391,-1.377073 -1.080246,-1.995445 -0.726855,-0.618373 -2.483278,-0.451715 -1.723401,0.110837 -5.055028,0.965814 l -15.814125,4.05829 2.22294,8.6622319 z m 5.872902,-17.8892401 20.789355,-5.335057 q 1.643603,-0.421788 2.461285,-1.294485 0.850704,-0.928519 0.485914,-2.350013 -0.353391,-1.377073 -1.511886,-1.64794 -1.125474,-0.326689 -2.769077,0.0951 l -20.789355,5.335056 z"
         style="font-style:normal;font-variant:normal;font-weight:normal;font-stretch:normal;font-size:45.8611px;font-family:Syne;-inkscape-font-specification:'Syne, @wght=775';font-variant-ligatures:normal;font-variant-caps:normal;font-variant-numeric:normal;font-variant-east-asian:normal;font-variation-settings:'wght' 775;fill:#f32015;fill-opacity:1"
         id="path894" />
      <path
         d="m 141.04705,-19.911832 -3.82507,1.703364 1.94448,-23.124105 10.09966,0.84927 -2.46711,29.33928 -10.09966,-0.84927 -30.05857,-23.468039 3.87461,-1.745221 -1.92143,22.849907 -10.099655,-0.84927 2.467105,-29.33928 10.09966,0.84927 z"
         style="font-style:normal;font-variant:normal;font-weight:normal;font-stretch:normal;font-size:45.8611px;font-family:Syne;-inkscape-font-specification:'Syne, @wght=775';font-variant-ligatures:normal;font-variant-caps:normal;font-variant-numeric:normal;font-variant-east-asian:normal;font-variation-settings:'wght' 775;fill:#f32015;fill-opacity:1"
         id="path896" />
      <path
         d="m 168.75379,-15.961276 -1.82461,4.207517 29.20017,12.66278976 -3.10184,7.15277994 -38.49878,-16.6951763 11.71399,-27.0122634 38.45671,16.67693 -3.10184,7.15278 -29.15809,-12.644543 -1.84286,4.249593 23.85663,10.3455353 -1.84286,4.2495928 z"
         style="font-style:normal;font-variant:normal;font-weight:normal;font-stretch:normal;font-size:45.8611px;font-family:Syne;-inkscape-font-specification:'Syne, @wght=775';font-variant-ligatures:normal;font-variant-caps:normal;font-variant-numeric:normal;font-variant-east-asian:normal;font-variation-settings:'wght' 775;fill:#f32015;fill-opacity:1"
         id="path898" />
      <path
         d="m 216.31789,-10.427079 8.24569,5.8934665 -17.12038,23.9535445 -8.24569,-5.893467 z"
         style="font-style:normal;font-variant:normal;font-weight:normal;font-stretch:normal;font-size:45.8611px;font-family:Syne;-inkscape-font-specification:'Syne, @wght=775';font-variant-ligatures:normal;font-variant-caps:normal;font-variant-numeric:normal;font-variant-east-asian:normal;font-variation-settings:'wght' 775;fill:#f32015;fill-opacity:1"
         id="path900" />
      <path
         d="M 215.12306,23.70644 237.09135,4.1035263 258.12937,27.680087 q 2.65647,2.977011 4.0142,5.945087 1.42249,2.971761 1.00505,5.741387 -0.38691,2.803846 -3.09017,5.216042 -1.81358,1.618309 -3.59138,2.036852 -1.77779,0.418543 -3.50033,-0.134204 -1.69199,-0.518529 -3.34715,-1.684584 -1.62093,-1.196589 -3.12447,-2.743791 l -1.32614,-2.381618 q 3.23293,3.691916 4.69226,6.01615 1.52408,2.327918 1.40144,3.912516 -0.0579,1.588282 -1.66616,3.023386 l -4.82481,4.305313 -6.71751,-7.528074 4.00356,-3.572494 q 1.06078,-0.946558 1.27608,-1.876261 0.21531,-0.929702 -0.73968,-2.413211 -0.89023,-1.479824 -3.18029,-4.046213 l -10.87015,-12.181793 -6.67261,5.954156 z m 18.58766,-3.002517 14.28997,16.014267 q 1.12976,1.266086 2.28057,1.591415 1.21557,0.329014 2.31056,-0.648078 1.06077,-0.946558 0.76911,-2.099994 -0.22691,-1.149751 -1.35667,-2.415836 L 237.71428,17.131429 Z"
         style="font-style:normal;font-variant:normal;font-weight:normal;font-stretch:normal;font-size:45.8611px;font-family:Syne;-inkscape-font-specification:'Syne, @wght=775';font-variant-ligatures:normal;font-variant-caps:normal;font-variant-numeric:normal;font-variant-east-asian:normal;font-variation-settings:'wght' 775;fill:#f32015;fill-opacity:1"
         id="path902" />
      <path
         d="m 258.60179,87.551339 q -3.38495,-8.277548 -3.86456,-14.175762 -0.47962,-5.898213 1.69725,-9.662158 2.23667,-3.738855 6.90606,-5.648316 4.66938,-1.909461 8.8425,-0.791775 4.23293,1.142776 8.02356,5.687008 3.79064,4.544232 7.17559,12.821781 3.40231,8.319997 3.86457,14.175761 0.47962,5.898214 -1.75706,9.637069 -2.17686,3.763943 -6.84625,5.673403 -4.66939,1.90946 -8.90231,0.76669 -4.17313,-1.11769 -7.96376,-5.66192 -3.77327,-4.501783 -7.17559,-12.821781 z m 7.25878,-2.968344 q 1.70115,4.159999 3.57036,6.913495 1.91165,2.736136 4.1168,3.766732 2.26497,1.055685 4.9817,-0.05527 2.71673,-1.110959 3.55055,-3.433832 0.89362,-2.297783 0.29788,-5.572041 -0.55328,-3.291616 -2.25444,-7.451615 -1.6838,-4.117549 -3.64753,-6.981033 -1.90392,-2.838394 -4.2036,-3.978977 -2.23987,-1.115493 -4.9566,-0.0045 -2.71674,1.110959 -3.57564,3.49364 -0.7991,2.407771 -0.21109,5.784285 0.64781,3.401605 2.33161,7.519154 z"
         style="font-style:normal;font-variant:normal;font-weight:normal;font-stretch:normal;font-size:45.8611px;font-family:Syne;-inkscape-font-specification:'Syne, @wght=775';font-variant-ligatures:normal;font-variant-caps:normal;font-variant-numeric:normal;font-variant-east-asian:normal;font-variation-settings:'wght' 775;fill:#f32015;fill-opacity:1"
         id="path904" />
    </g>
  </g>
</svg>
